                                                                            D-MEM Bus &
Cycle:      IF      |     ID      |     EX      |     MEM     |     WB      Reg Result
    0:    4:nop     |   0:-       |   0:-       |   0:-       |   0:-       BUS_LOAD  MEM[0] accepted 1
    1:    8:auipc   |   4:nop     |   0:-       |   0:-       |   0:-       BUS_LOAD  MEM[0] accepted 1
    2:   12:addi    |   8:auipc   |   4:nop     |   0:-       |   0:-       BUS_LOAD  MEM[8] accepted 1
    3:   16:auipc   |  12:addi    |   8:auipc   |   4:nop     |   0:-       BUS_LOAD  MEM[8] accepted 1
    4:   20:addi    |  16:auipc   |  12:addi    |   8:auipc   |   4:nop     BUS_LOAD  MEM[16] accepted 1
    5:   24:addi    |  20:addi    |  16:auipc   |  12:addi    |   8:auipc   r1=4  BUS_LOAD  MEM[16] accepted 1
    6:   28:auipc   |  24:addi    |  20:addi    |  16:auipc   |  12:addi    r1=160  BUS_LOAD  MEM[24] accepted 1
    7:   32:addi    |  28:auipc   |  24:addi    |  20:addi    |  16:auipc   r2=65548  BUS_LOAD  MEM[24] accepted 1
    8:   36:addi    |  32:addi    |  28:auipc   |  24:addi    |  20:addi    r2=65536  BUS_LOAD  MEM[32] accepted 1
    9:   40:addi    |  36:addi    |  32:addi    |  28:auipc   |  24:addi    r8=65536  BUS_LOAD  MEM[32] accepted 1
   10:   44:addi    |  40:addi    |  36:addi    |  32:addi    |  28:auipc   r3=4120  BUS_LOAD  MEM[40] accepted 1
   11:   48:addi    |  44:addi    |  40:addi    |  36:addi    |  32:addi    r3=2368  BUS_LOAD  MEM[40] accepted 1
   12:   52:addi    |  48:addi    |  44:addi    |  40:addi    |  36:addi    r4=0  BUS_LOAD  MEM[48] accepted 1
   13:   56:addi    |  52:addi    |  48:addi    |  44:addi    |  40:addi    r5=0  BUS_LOAD  MEM[48] accepted 1
   14:   60:addi    |  56:addi    |  52:addi    |  48:addi    |  44:addi    r6=0  BUS_LOAD  MEM[56] accepted 1
   15:   64:addi    |  60:addi    |  56:addi    |  52:addi    |  48:addi    r7=0  BUS_LOAD  MEM[56] accepted 1
   16:   68:addi    |  64:addi    |  60:addi    |  56:addi    |  52:addi    r9=0  BUS_LOAD  MEM[64] accepted 1
   17:   72:addi    |  68:addi    |  64:addi    |  60:addi    |  56:addi    r10=0  BUS_LOAD  MEM[64] accepted 1
   18:   76:addi    |  72:addi    |  68:addi    |  64:addi    |  60:addi    r11=0  BUS_LOAD  MEM[72] accepted 1
   19:   80:addi    |  76:addi    |  72:addi    |  68:addi    |  64:addi    r12=0  BUS_LOAD  MEM[72] accepted 1
   20:   84:addi    |  80:addi    |  76:addi    |  72:addi    |  68:addi    r13=0  BUS_LOAD  MEM[80] accepted 1
   21:   88:addi    |  84:addi    |  80:addi    |  76:addi    |  72:addi    r14=0  BUS_LOAD  MEM[80] accepted 1
   22:   92:addi    |  88:addi    |  84:addi    |  80:addi    |  76:addi    r15=0  BUS_LOAD  MEM[88] accepted 1
   23:   96:addi    |  92:addi    |  88:addi    |  84:addi    |  80:addi    r16=0  BUS_LOAD  MEM[88] accepted 1
   24:  100:addi    |  96:addi    |  92:addi    |  88:addi    |  84:addi    r17=0  BUS_LOAD  MEM[96] accepted 1
   25:  104:addi    | 100:addi    |  96:addi    |  92:addi    |  88:addi    r18=0  BUS_LOAD  MEM[96] accepted 1
   26:  108:addi    | 104:addi    | 100:addi    |  96:addi    |  92:addi    r19=0  BUS_LOAD  MEM[104] accepted 1
   27:  112:addi    | 108:addi    | 104:addi    | 100:addi    |  96:addi    r20=0  BUS_LOAD  MEM[104] accepted 1
   28:  116:addi    | 112:addi    | 108:addi    | 104:addi    | 100:addi    r21=0  BUS_LOAD  MEM[112] accepted 1
   29:  120:addi    | 116:addi    | 112:addi    | 108:addi    | 104:addi    r22=0  BUS_LOAD  MEM[112] accepted 1
   30:  124:addi    | 120:addi    | 116:addi    | 112:addi    | 108:addi    r23=0  BUS_LOAD  MEM[120] accepted 1
   31:  128:addi    | 124:addi    | 120:addi    | 116:addi    | 112:addi    r24=0  BUS_LOAD  MEM[120] accepted 1
   32:  132:addi    | 128:addi    | 124:addi    | 120:addi    | 116:addi    r25=0  BUS_LOAD  MEM[128] accepted 1
   33:  136:addi    | 132:addi    | 128:addi    | 124:addi    | 120:addi    r26=0  BUS_LOAD  MEM[128] accepted 1
   34:  140:addi    | 136:addi    | 132:addi    | 128:addi    | 124:addi    r27=0  BUS_LOAD  MEM[136] accepted 1
   35:  144:jal     | 140:addi    | 136:addi    | 132:addi    | 128:addi    r28=0  BUS_LOAD  MEM[136] accepted 1
   36:  148:invalid | 144:jal     | 140:addi    | 136:addi    | 132:addi    r29=0  BUS_LOAD  MEM[144] accepted 1
   37:  152:invalid | 148:invalid | 144:jal     | 140:addi    | 136:addi    r30=0  BUS_LOAD  MEM[144] accepted 1
   38:  156:invalid | 152:invalid | 148:-       | 144:jal     | 140:addi    r31=0  BUS_LOAD  MEM[152] accepted 1
   39:  224:addi    |   0:-       |   0:-       |   0:-       | 144:jal     BUS_LOAD  MEM[216] accepted 1
   40:  228:sw      | 224:addi    |   0:-       |   0:-       |   0:-       BUS_LOAD  MEM[224] accepted 1
   41:  232:sw      | 228:sw      | 224:addi    |   0:-       |   0:-       BUS_LOAD  MEM[224] accepted 1
   42:  236:addi    | 232:sw      | 228:sw      | 224:addi    |   0:-       BUS_LOAD  MEM[232] accepted 1
   43:  240:-       | 236:addi    | 232:sw      | 228:sw      | 224:addi    r2=65504  BUS_STORE MEM[65532] = 160 accepted 1
   44:  240:-       | 240:-       | 236:addi    | 232:sw      | 228:sw      BUS_STORE MEM[65528] = 65536 accepted 1
   45:  240:lui     | 240:-       | 240:-       | 236:addi    | 232:sw      BUS_LOAD  MEM[232] accepted 1
   46:  244:addi    | 240:lui     | 240:-       | 240:-       | 236:addi    r8=65536  BUS_LOAD  MEM[240] accepted 1
   47:  248:sw      | 244:addi    | 240:lui     | 240:-       | 240:-       BUS_LOAD  MEM[240] accepted 1
   48:  252:lw      | 248:sw      | 244:addi    | 240:lui     | 240:-       BUS_LOAD  MEM[248] accepted 1
   49:  256:addi    | 252:lw      | 248:sw      | 244:addi    | 240:lui     r15=28672  BUS_LOAD  MEM[248] accepted 1
   50:  260:-       | 256:addi    | 252:lw      | 248:sw      | 244:addi    r15=29038  BUS_STORE MEM[65516] = 29038 accepted 1
   51:  260:-       | 256:addi    |   0:-       | 252:lw      | 248:sw      BUS_LOAD  MEM[65516] accepted 1
   52:  260:sw      | 260:-       | 256:addi    |   0:-       | 252:lw      r15=29038  BUS_LOAD  MEM[256] accepted 1
   53:  264:lw      | 260:sw      | 260:-       | 256:addi    |   0:-       BUS_LOAD  MEM[256] accepted 1
   54:  268:lw      | 264:lw      | 260:sw      | 260:-       | 256:addi    r15=29050  BUS_LOAD  MEM[264] accepted 1
   55:  272:-       | 268:lw      | 264:lw      | 260:sw      | 260:-       BUS_STORE MEM[65512] = 29050 accepted 1
   56:  272:-       | 272:-       | 268:lw      | 264:lw      | 260:sw      BUS_LOAD  MEM[65508] accepted 1
   57:  272:-       | 272:-       | 272:-       | 268:lw      | 264:lw      r15=0  BUS_LOAD  MEM[65512] accepted 1
   58:  272:sw      | 272:-       | 272:-       | 272:-       | 268:lw      r14=29050  BUS_LOAD  MEM[264] accepted 1
   59:  276:lw      | 272:sw      | 272:-       | 272:-       | 272:-       BUS_LOAD  MEM[272] accepted 1
   60:  280:auipc   | 276:lw      | 272:sw      | 272:-       | 272:-       BUS_LOAD  MEM[272] accepted 1
   61:  284:-       | 280:auipc   | 276:lw      | 272:sw      | 272:-       BUS_STORE MEM[0] = 29050 accepted 1
   62:  284:-       | 284:-       | 280:auipc   | 276:lw      | 272:sw      BUS_LOAD  MEM[65516] accepted 1
   63:  284:jalr    | 284:-       | 284:-       | 280:auipc   | 276:lw      r10=29038  BUS_LOAD  MEM[280] accepted 1
   64:  288:sw      | 284:jalr    | 284:-       | 284:-       | 280:auipc   r1=276  BUS_LOAD  MEM[280] accepted 1
   65:  292:addi    | 288:sw      | 284:jalr    | 284:-       | 284:-       BUS_LOAD  MEM[288] accepted 1
   66:  296:addi    | 292:addi    | 288:sw      | 284:jalr    | 284:-       BUS_LOAD  MEM[288] accepted 1
   67:  184:addi    |   0:-       |   0:-       |   0:-       | 284:jalr    r1=284  BUS_LOAD  MEM[176] accepted 1
   68:  188:sw      | 184:addi    |   0:-       |   0:-       |   0:-       BUS_LOAD  MEM[184] accepted 1
   69:  192:addi    | 188:sw      | 184:addi    |   0:-       |   0:-       BUS_LOAD  MEM[184] accepted 1
   70:  196:sw      | 192:addi    | 188:sw      | 184:addi    |   0:-       BUS_LOAD  MEM[192] accepted 1
   71:  200:-       | 196:sw      | 192:addi    | 188:sw      | 184:addi    r2=65472  BUS_STORE MEM[65500] = 65536 accepted 1
   72:  200:lw      | 200:-       | 196:sw      | 192:addi    | 188:sw      BUS_LOAD  MEM[192] accepted 1
   73:  204:-       | 200:lw      | 200:-       | 196:sw      | 192:addi    r8=65504  BUS_STORE MEM[65484] = 29038 accepted 1
   74:  204:xori    | 204:-       | 200:lw      | 200:-       | 196:sw      BUS_LOAD  MEM[200] accepted 1
   75:  208:-       | 204:xori    | 204:-       | 200:lw      | 200:-       BUS_LOAD  MEM[65484] accepted 1
   76:  208:addi    | 208:-       | 204:xori    | 204:-       | 200:lw      r15=29038  BUS_LOAD  MEM[200] accepted 1
   77:  212:lw      | 208:addi    | 208:-       | 204:xori    | 204:-       BUS_LOAD  MEM[208] accepted 1
   78:  216:addi    | 212:lw      | 208:addi    | 208:-       | 204:xori    r15=-29039  BUS_LOAD  MEM[208] accepted 1
   79:  220:jalr    | 216:addi    | 212:lw      | 208:addi    | 208:-       BUS_LOAD  MEM[216] accepted 1
   80:  224:-       | 220:jalr    | 216:addi    | 212:lw      | 208:addi    r10=-29039  BUS_LOAD  MEM[65500] accepted 1
   81:  224:addi    | 224:-       | 220:jalr    | 216:addi    | 212:lw      r8=65536  BUS_LOAD  MEM[216] accepted 1
   82:  228:sw      | 224:addi    | 224:-       | 220:jalr    | 216:addi    r2=65504  BUS_LOAD  MEM[224] accepted 1
   83:  288:sw      |   0:-       |   0:-       |   0:-       | 220:jalr    BUS_LOAD  MEM[280] accepted 1
   84:  292:addi    | 288:sw      |   0:-       |   0:-       |   0:-       BUS_LOAD  MEM[288] accepted 1
   85:  296:addi    | 292:addi    | 288:sw      |   0:-       |   0:-       BUS_LOAD  MEM[288] accepted 1
   86:  300:-       | 296:addi    | 292:addi    | 288:sw      |   0:-       BUS_STORE MEM[65516] = -29039 accepted 1
   87:  300:lw      | 300:-       | 296:addi    | 292:addi    | 288:sw      BUS_LOAD  MEM[296] accepted 1
   88:  304:lw      | 300:lw      | 300:-       | 296:addi    | 292:addi    r15=0  BUS_LOAD  MEM[296] accepted 1
   89:  308:addi    | 304:lw      | 300:lw      | 300:-       | 296:addi    r10=0  BUS_LOAD  MEM[304] accepted 1
   90:  312:-       | 308:addi    | 304:lw      | 300:lw      | 300:-       BUS_LOAD  MEM[65532] accepted 1
   91:  312:-       | 312:-       | 308:addi    | 304:lw      | 300:lw      r1=160  BUS_LOAD  MEM[65528] accepted 1
   92:  312:jalr    | 312:-       | 312:-       | 308:addi    | 304:lw      r8=65536  BUS_LOAD  MEM[304] accepted 1
   93:  316:invalid | 312:jalr    | 312:-       | 312:-       | 308:addi    r2=65536  BUS_LOAD  MEM[312] accepted 1
   94:  320:invalid | 316:invalid | 312:jalr    | 312:-       | 312:-       BUS_LOAD  MEM[312] accepted 1
   95:  324:invalid | 320:invalid | 316:-       | 312:jalr    | 312:-       BUS_LOAD  MEM[320] accepted 1
   96:  164:auipc   |   0:-       |   0:-       |   0:-       | 312:jalr    BUS_LOAD  MEM[160] accepted 1
   97:  168:addi    | 164:auipc   |   0:-       |   0:-       |   0:-       BUS_LOAD  MEM[160] accepted 1
   98:  172:sw      | 168:addi    | 164:auipc   |   0:-       |   0:-       BUS_LOAD  MEM[168] accepted 1
   99:  176:nop     | 172:sw      | 168:addi    | 164:auipc   |   0:-       BUS_LOAD  MEM[168] accepted 1
  100:  180:wfi     | 176:nop     | 172:sw      | 168:addi    | 164:auipc   r2=65696  BUS_LOAD  MEM[176] accepted 1
  101:  184:-       | 180:wfi     | 176:nop     | 172:sw      | 168:addi    r2=65536  BUS_STORE MEM[65528] = 0 accepted 1
  102:  184:addi    | 184:-       | 180:wfi     | 176:nop     | 172:sw      BUS_LOAD  MEM[176] accepted 1
  103:  188:sw      | 184:addi    | 184:-       | 180:wfi     | 176:nop     BUS_LOAD  MEM[184] accepted 1
  104:  192:addi    | 188:sw      | 184:addi    | 184:-       | 180:wfi     BUS_LOAD  MEM[184] accepted 1
