                                                                            D-MEM Bus &
Cycle:      IF      |     ID      |     EX      |     MEM     |     WB      Reg Result
    0:    4:jal     |   0:-       |   0:-       |   0:-       |   0:-       BUS_LOAD  MEM[0] accepted 1
    1:    8:nop     |   4:jal     |   0:-       |   0:-       |   0:-       BUS_LOAD  MEM[0] accepted 1
    2:   12:lb      |   8:nop     |   4:jal     |   0:-       |   0:-       BUS_LOAD  MEM[8] accepted 1
    3:   16:invalid |  12:lb      |   8:nop     |   4:jal     |   0:-       BUS_LOAD  MEM[8] accepted 1
    4:  308:addi    |   0:-       |   0:-       |   0:-       |   4:jal     BUS_LOAD  MEM[304] accepted 1
    5:  312:lui     | 308:addi    |   0:-       |   0:-       |   0:-       BUS_LOAD  MEM[304] accepted 1
    6:  316:addi    | 312:lui     | 308:addi    |   0:-       |   0:-       BUS_LOAD  MEM[312] accepted 1
    7:  320:addi    | 316:addi    | 312:lui     | 308:addi    |   0:-       BUS_LOAD  MEM[312] accepted 1
    8:  324:addi    | 320:addi    | 316:addi    | 312:lui     | 308:addi    r6=0  BUS_LOAD  MEM[320] accepted 1
    9:  328:lw      | 324:addi    | 320:addi    | 316:addi    | 312:lui     r7=8192  BUS_LOAD  MEM[320] accepted 1
   10:  332:mul     | 328:lw      | 324:addi    | 320:addi    | 316:addi    r7=9999  BUS_LOAD  MEM[328] accepted 1
   11:  336:-       | 332:mul     | 328:lw      | 324:addi    | 320:addi    r1=8  BUS_LOAD  MEM[328] accepted 1
   12:  336:-       | 332:mul     |   0:-       | 328:lw      | 324:addi    r2=152  BUS_LOAD  MEM[8] accepted 1
   13:  336:lw      | 336:-       | 332:mul     |   0:-       | 328:lw      r3=3  BUS_LOAD  MEM[328] accepted 1
   14:  340:add     | 336:lw      | 336:-       | 332:mul     |   0:-       BUS_LOAD  MEM[336] accepted 1
   15:  344:-       | 340:add     | 336:lw      | 336:-       | 332:mul     r3=29997  BUS_LOAD  MEM[336] accepted 1
   16:  344:-       | 340:add     |   0:-       | 336:lw      | 336:-       BUS_LOAD  MEM[152] accepted 1
   17:  344:sw      | 344:-       | 340:add     |   0:-       | 336:lw      r4=1  BUS_LOAD  MEM[336] accepted 1
   18:  348:addi    | 344:sw      | 344:-       | 340:add     |   0:-       BUS_LOAD  MEM[344] accepted 1
   19:  352:addi    | 348:addi    | 344:sw      | 344:-       | 340:add     r3=29998  BUS_LOAD  MEM[344] accepted 1
   20:  356:-       | 352:addi    | 348:addi    | 344:sw      | 344:-       BUS_STORE MEM[152] = 29998 accepted 1
   21:  356:addi    | 356:-       | 352:addi    | 348:addi    | 344:sw      BUS_LOAD  MEM[352] accepted 1
   22:  360:sltiu   | 356:addi    | 356:-       | 352:addi    | 348:addi    r1=16  BUS_LOAD  MEM[352] accepted 1
   23:  364:bne     | 360:sltiu   | 356:addi    | 356:-       | 352:addi    r2=160  BUS_LOAD  MEM[360] accepted 1
   24:  368:wfi     | 364:bne     | 360:sltiu   | 356:addi    | 356:-       BUS_LOAD  MEM[360] accepted 1
   25:  372:invalid | 368:wfi     | 364:bne     | 360:sltiu   | 356:addi    r6=1  BUS_LOAD  MEM[368] accepted 1
   26:  376:invalid | 372:invalid | 368:wfi     | 364:bne     | 360:sltiu   r5=1  BUS_LOAD  MEM[368] accepted 1
   27:  328:lw      |   0:-       |   0:-       |   0:-       | 364:bne     BUS_LOAD  MEM[320] accepted 1
   28:  332:mul     | 328:lw      |   0:-       |   0:-       |   0:-       BUS_LOAD  MEM[328] accepted 1
   29:  336:-       | 332:mul     | 328:lw      |   0:-       |   0:-       BUS_LOAD  MEM[328] accepted 1
   30:  336:-       | 332:mul     |   0:-       | 328:lw      |   0:-       BUS_LOAD  MEM[16] accepted 1
   31:  336:lw      | 336:-       | 332:mul     |   0:-       | 328:lw      r3=1  BUS_LOAD  MEM[328] accepted 1
   32:  340:add     | 336:lw      | 336:-       | 332:mul     |   0:-       BUS_LOAD  MEM[336] accepted 1
   33:  344:-       | 340:add     | 336:lw      | 336:-       | 332:mul     r3=9999  BUS_LOAD  MEM[336] accepted 1
   34:  344:-       | 340:add     |   0:-       | 336:lw      | 336:-       BUS_LOAD  MEM[160] accepted 1
   35:  344:sw      | 344:-       | 340:add     |   0:-       | 336:lw      r4=4  BUS_LOAD  MEM[336] accepted 1
   36:  348:addi    | 344:sw      | 344:-       | 340:add     |   0:-       BUS_LOAD  MEM[344] accepted 1
   37:  352:addi    | 348:addi    | 344:sw      | 344:-       | 340:add     r3=10003  BUS_LOAD  MEM[344] accepted 1
   38:  356:-       | 352:addi    | 348:addi    | 344:sw      | 344:-       BUS_STORE MEM[160] = 10003 accepted 1
   39:  356:addi    | 356:-       | 352:addi    | 348:addi    | 344:sw      BUS_LOAD  MEM[352] accepted 1
   40:  360:sltiu   | 356:addi    | 356:-       | 352:addi    | 348:addi    r1=24  BUS_LOAD  MEM[352] accepted 1
   41:  364:bne     | 360:sltiu   | 356:addi    | 356:-       | 352:addi    r2=168  BUS_LOAD  MEM[360] accepted 1
   42:  368:wfi     | 364:bne     | 360:sltiu   | 356:addi    | 356:-       BUS_LOAD  MEM[360] accepted 1
   43:  372:invalid | 368:wfi     | 364:bne     | 360:sltiu   | 356:addi    r6=2  BUS_LOAD  MEM[368] accepted 1
   44:  376:invalid | 372:invalid | 368:wfi     | 364:bne     | 360:sltiu   r5=1  BUS_LOAD  MEM[368] accepted 1
   45:  328:lw      |   0:-       |   0:-       |   0:-       | 364:bne     BUS_LOAD  MEM[320] accepted 1
   46:  332:mul     | 328:lw      |   0:-       |   0:-       |   0:-       BUS_LOAD  MEM[328] accepted 1
   47:  336:-       | 332:mul     | 328:lw      |   0:-       |   0:-       BUS_LOAD  MEM[328] accepted 1
   48:  336:-       | 332:mul     |   0:-       | 328:lw      |   0:-       BUS_LOAD  MEM[24] accepted 1
   49:  336:lw      | 336:-       | 332:mul     |   0:-       | 328:lw      r3=4  BUS_LOAD  MEM[328] accepted 1
   50:  340:add     | 336:lw      | 336:-       | 332:mul     |   0:-       BUS_LOAD  MEM[336] accepted 1
   51:  344:-       | 340:add     | 336:lw      | 336:-       | 332:mul     r3=39996  BUS_LOAD  MEM[336] accepted 1
   52:  344:-       | 340:add     |   0:-       | 336:lw      | 336:-       BUS_LOAD  MEM[168] accepted 1
   53:  344:sw      | 344:-       | 340:add     |   0:-       | 336:lw      r4=1  BUS_LOAD  MEM[336] accepted 1
   54:  348:addi    | 344:sw      | 344:-       | 340:add     |   0:-       BUS_LOAD  MEM[344] accepted 1
   55:  352:addi    | 348:addi    | 344:sw      | 344:-       | 340:add     r3=39997  BUS_LOAD  MEM[344] accepted 1
   56:  356:-       | 352:addi    | 348:addi    | 344:sw      | 344:-       BUS_STORE MEM[168] = 39997 accepted 1
   57:  356:addi    | 356:-       | 352:addi    | 348:addi    | 344:sw      BUS_LOAD  MEM[352] accepted 1
   58:  360:sltiu   | 356:addi    | 356:-       | 352:addi    | 348:addi    r1=32  BUS_LOAD  MEM[352] accepted 1
   59:  364:bne     | 360:sltiu   | 356:addi    | 356:-       | 352:addi    r2=176  BUS_LOAD  MEM[360] accepted 1
   60:  368:wfi     | 364:bne     | 360:sltiu   | 356:addi    | 356:-       BUS_LOAD  MEM[360] accepted 1
   61:  372:invalid | 368:wfi     | 364:bne     | 360:sltiu   | 356:addi    r6=3  BUS_LOAD  MEM[368] accepted 1
   62:  376:invalid | 372:invalid | 368:wfi     | 364:bne     | 360:sltiu   r5=1  BUS_LOAD  MEM[368] accepted 1
   63:  328:lw      |   0:-       |   0:-       |   0:-       | 364:bne     BUS_LOAD  MEM[320] accepted 1
   64:  332:mul     | 328:lw      |   0:-       |   0:-       |   0:-       BUS_LOAD  MEM[328] accepted 1
   65:  336:-       | 332:mul     | 328:lw      |   0:-       |   0:-       BUS_LOAD  MEM[328] accepted 1
   66:  336:-       | 332:mul     |   0:-       | 328:lw      |   0:-       BUS_LOAD  MEM[32] accepted 1
   67:  336:lw      | 336:-       | 332:mul     |   0:-       | 328:lw      r3=1  BUS_LOAD  MEM[328] accepted 1
   68:  340:add     | 336:lw      | 336:-       | 332:mul     |   0:-       BUS_LOAD  MEM[336] accepted 1
   69:  344:-       | 340:add     | 336:lw      | 336:-       | 332:mul     r3=9999  BUS_LOAD  MEM[336] accepted 1
   70:  344:-       | 340:add     |   0:-       | 336:lw      | 336:-       BUS_LOAD  MEM[176] accepted 1
   71:  344:sw      | 344:-       | 340:add     |   0:-       | 336:lw      r4=4  BUS_LOAD  MEM[336] accepted 1
   72:  348:addi    | 344:sw      | 344:-       | 340:add     |   0:-       BUS_LOAD  MEM[344] accepted 1
   73:  352:addi    | 348:addi    | 344:sw      | 344:-       | 340:add     r3=10003  BUS_LOAD  MEM[344] accepted 1
   74:  356:-       | 352:addi    | 348:addi    | 344:sw      | 344:-       BUS_STORE MEM[176] = 10003 accepted 1
   75:  356:addi    | 356:-       | 352:addi    | 348:addi    | 344:sw      BUS_LOAD  MEM[352] accepted 1
   76:  360:sltiu   | 356:addi    | 356:-       | 352:addi    | 348:addi    r1=40  BUS_LOAD  MEM[352] accepted 1
   77:  364:bne     | 360:sltiu   | 356:addi    | 356:-       | 352:addi    r2=184  BUS_LOAD  MEM[360] accepted 1
   78:  368:wfi     | 364:bne     | 360:sltiu   | 356:addi    | 356:-       BUS_LOAD  MEM[360] accepted 1
   79:  372:invalid | 368:wfi     | 364:bne     | 360:sltiu   | 356:addi    r6=4  BUS_LOAD  MEM[368] accepted 1
   80:  376:invalid | 372:invalid | 368:wfi     | 364:bne     | 360:sltiu   r5=1  BUS_LOAD  MEM[368] accepted 1
   81:  328:lw      |   0:-       |   0:-       |   0:-       | 364:bne     BUS_LOAD  MEM[320] accepted 1
   82:  332:mul     | 328:lw      |   0:-       |   0:-       |   0:-       BUS_LOAD  MEM[328] accepted 1
   83:  336:-       | 332:mul     | 328:lw      |   0:-       |   0:-       BUS_LOAD  MEM[328] accepted 1
   84:  336:-       | 332:mul     |   0:-       | 328:lw      |   0:-       BUS_LOAD  MEM[40] accepted 1
   85:  336:lw      | 336:-       | 332:mul     |   0:-       | 328:lw      r3=5  BUS_LOAD  MEM[328] accepted 1
   86:  340:add     | 336:lw      | 336:-       | 332:mul     |   0:-       BUS_LOAD  MEM[336] accepted 1
   87:  344:-       | 340:add     | 336:lw      | 336:-       | 332:mul     r3=49995  BUS_LOAD  MEM[336] accepted 1
   88:  344:-       | 340:add     |   0:-       | 336:lw      | 336:-       BUS_LOAD  MEM[184] accepted 1
   89:  344:sw      | 344:-       | 340:add     |   0:-       | 336:lw      r4=2  BUS_LOAD  MEM[336] accepted 1
   90:  348:addi    | 344:sw      | 344:-       | 340:add     |   0:-       BUS_LOAD  MEM[344] accepted 1
   91:  352:addi    | 348:addi    | 344:sw      | 344:-       | 340:add     r3=49997  BUS_LOAD  MEM[344] accepted 1
   92:  356:-       | 352:addi    | 348:addi    | 344:sw      | 344:-       BUS_STORE MEM[184] = 49997 accepted 1
   93:  356:addi    | 356:-       | 352:addi    | 348:addi    | 344:sw      BUS_LOAD  MEM[352] accepted 1
   94:  360:sltiu   | 356:addi    | 356:-       | 352:addi    | 348:addi    r1=48  BUS_LOAD  MEM[352] accepted 1
   95:  364:bne     | 360:sltiu   | 356:addi    | 356:-       | 352:addi    r2=192  BUS_LOAD  MEM[360] accepted 1
   96:  368:wfi     | 364:bne     | 360:sltiu   | 356:addi    | 356:-       BUS_LOAD  MEM[360] accepted 1
   97:  372:invalid | 368:wfi     | 364:bne     | 360:sltiu   | 356:addi    r6=5  BUS_LOAD  MEM[368] accepted 1
   98:  376:invalid | 372:invalid | 368:wfi     | 364:bne     | 360:sltiu   r5=1  BUS_LOAD  MEM[368] accepted 1
   99:  328:lw      |   0:-       |   0:-       |   0:-       | 364:bne     BUS_LOAD  MEM[320] accepted 1
  100:  332:mul     | 328:lw      |   0:-       |   0:-       |   0:-       BUS_LOAD  MEM[328] accepted 1
  101:  336:-       | 332:mul     | 328:lw      |   0:-       |   0:-       BUS_LOAD  MEM[328] accepted 1
  102:  336:-       | 332:mul     |   0:-       | 328:lw      |   0:-       BUS_LOAD  MEM[48] accepted 1
  103:  336:lw      | 336:-       | 332:mul     |   0:-       | 328:lw      r3=9  BUS_LOAD  MEM[328] accepted 1
  104:  340:add     | 336:lw      | 336:-       | 332:mul     |   0:-       BUS_LOAD  MEM[336] accepted 1
  105:  344:-       | 340:add     | 336:lw      | 336:-       | 332:mul     r3=89991  BUS_LOAD  MEM[336] accepted 1
  106:  344:-       | 340:add     |   0:-       | 336:lw      | 336:-       BUS_LOAD  MEM[192] accepted 1
  107:  344:sw      | 344:-       | 340:add     |   0:-       | 336:lw      r4=1  BUS_LOAD  MEM[336] accepted 1
  108:  348:addi    | 344:sw      | 344:-       | 340:add     |   0:-       BUS_LOAD  MEM[344] accepted 1
  109:  352:addi    | 348:addi    | 344:sw      | 344:-       | 340:add     r3=89992  BUS_LOAD  MEM[344] accepted 1
  110:  356:-       | 352:addi    | 348:addi    | 344:sw      | 344:-       BUS_STORE MEM[192] = 89992 accepted 1
  111:  356:addi    | 356:-       | 352:addi    | 348:addi    | 344:sw      BUS_LOAD  MEM[352] accepted 1
  112:  360:sltiu   | 356:addi    | 356:-       | 352:addi    | 348:addi    r1=56  BUS_LOAD  MEM[352] accepted 1
  113:  364:bne     | 360:sltiu   | 356:addi    | 356:-       | 352:addi    r2=200  BUS_LOAD  MEM[360] accepted 1
  114:  368:wfi     | 364:bne     | 360:sltiu   | 356:addi    | 356:-       BUS_LOAD  MEM[360] accepted 1
  115:  372:invalid | 368:wfi     | 364:bne     | 360:sltiu   | 356:addi    r6=6  BUS_LOAD  MEM[368] accepted 1
  116:  376:invalid | 372:invalid | 368:wfi     | 364:bne     | 360:sltiu   r5=1  BUS_LOAD  MEM[368] accepted 1
  117:  328:lw      |   0:-       |   0:-       |   0:-       | 364:bne     BUS_LOAD  MEM[320] accepted 1
  118:  332:mul     | 328:lw      |   0:-       |   0:-       |   0:-       BUS_LOAD  MEM[328] accepted 1
  119:  336:-       | 332:mul     | 328:lw      |   0:-       |   0:-       BUS_LOAD  MEM[328] accepted 1
  120:  336:-       | 332:mul     |   0:-       | 328:lw      |   0:-       BUS_LOAD  MEM[56] accepted 1
  121:  336:lw      | 336:-       | 332:mul     |   0:-       | 328:lw      r3=2  BUS_LOAD  MEM[328] accepted 1
  122:  340:add     | 336:lw      | 336:-       | 332:mul     |   0:-       BUS_LOAD  MEM[336] accepted 1
  123:  344:-       | 340:add     | 336:lw      | 336:-       | 332:mul     r3=19998  BUS_LOAD  MEM[336] accepted 1
  124:  344:-       | 340:add     |   0:-       | 336:lw      | 336:-       BUS_LOAD  MEM[200] accepted 1
  125:  344:sw      | 344:-       | 340:add     |   0:-       | 336:lw      r4=3  BUS_LOAD  MEM[336] accepted 1
  126:  348:addi    | 344:sw      | 344:-       | 340:add     |   0:-       BUS_LOAD  MEM[344] accepted 1
  127:  352:addi    | 348:addi    | 344:sw      | 344:-       | 340:add     r3=20001  BUS_LOAD  MEM[344] accepted 1
  128:  356:-       | 352:addi    | 348:addi    | 344:sw      | 344:-       BUS_STORE MEM[200] = 20001 accepted 1
  129:  356:addi    | 356:-       | 352:addi    | 348:addi    | 344:sw      BUS_LOAD  MEM[352] accepted 1
  130:  360:sltiu   | 356:addi    | 356:-       | 352:addi    | 348:addi    r1=64  BUS_LOAD  MEM[352] accepted 1
  131:  364:bne     | 360:sltiu   | 356:addi    | 356:-       | 352:addi    r2=208  BUS_LOAD  MEM[360] accepted 1
  132:  368:wfi     | 364:bne     | 360:sltiu   | 356:addi    | 356:-       BUS_LOAD  MEM[360] accepted 1
  133:  372:invalid | 368:wfi     | 364:bne     | 360:sltiu   | 356:addi    r6=7  BUS_LOAD  MEM[368] accepted 1
  134:  376:invalid | 372:invalid | 368:wfi     | 364:bne     | 360:sltiu   r5=1  BUS_LOAD  MEM[368] accepted 1
  135:  328:lw      |   0:-       |   0:-       |   0:-       | 364:bne     BUS_LOAD  MEM[320] accepted 1
  136:  332:mul     | 328:lw      |   0:-       |   0:-       |   0:-       BUS_LOAD  MEM[328] accepted 1
  137:  336:-       | 332:mul     | 328:lw      |   0:-       |   0:-       BUS_LOAD  MEM[328] accepted 1
  138:  336:-       | 332:mul     |   0:-       | 328:lw      |   0:-       BUS_LOAD  MEM[64] accepted 1
  139:  336:lw      | 336:-       | 332:mul     |   0:-       | 328:lw      r3=6  BUS_LOAD  MEM[328] accepted 1
  140:  340:add     | 336:lw      | 336:-       | 332:mul     |   0:-       BUS_LOAD  MEM[336] accepted 1
  141:  344:-       | 340:add     | 336:lw      | 336:-       | 332:mul     r3=59994  BUS_LOAD  MEM[336] accepted 1
  142:  344:-       | 340:add     |   0:-       | 336:lw      | 336:-       BUS_LOAD  MEM[208] accepted 1
  143:  344:sw      | 344:-       | 340:add     |   0:-       | 336:lw      r4=5  BUS_LOAD  MEM[336] accepted 1
  144:  348:addi    | 344:sw      | 344:-       | 340:add     |   0:-       BUS_LOAD  MEM[344] accepted 1
  145:  352:addi    | 348:addi    | 344:sw      | 344:-       | 340:add     r3=59999  BUS_LOAD  MEM[344] accepted 1
  146:  356:-       | 352:addi    | 348:addi    | 344:sw      | 344:-       BUS_STORE MEM[208] = 59999 accepted 1
  147:  356:addi    | 356:-       | 352:addi    | 348:addi    | 344:sw      BUS_LOAD  MEM[352] accepted 1
  148:  360:sltiu   | 356:addi    | 356:-       | 352:addi    | 348:addi    r1=72  BUS_LOAD  MEM[352] accepted 1
  149:  364:bne     | 360:sltiu   | 356:addi    | 356:-       | 352:addi    r2=216  BUS_LOAD  MEM[360] accepted 1
  150:  368:wfi     | 364:bne     | 360:sltiu   | 356:addi    | 356:-       BUS_LOAD  MEM[360] accepted 1
  151:  372:invalid | 368:wfi     | 364:bne     | 360:sltiu   | 356:addi    r6=8  BUS_LOAD  MEM[368] accepted 1
  152:  376:invalid | 372:invalid | 368:wfi     | 364:bne     | 360:sltiu   r5=1  BUS_LOAD  MEM[368] accepted 1
  153:  328:lw      |   0:-       |   0:-       |   0:-       | 364:bne     BUS_LOAD  MEM[320] accepted 1
  154:  332:mul     | 328:lw      |   0:-       |   0:-       |   0:-       BUS_LOAD  MEM[328] accepted 1
  155:  336:-       | 332:mul     | 328:lw      |   0:-       |   0:-       BUS_LOAD  MEM[328] accepted 1
  156:  336:-       | 332:mul     |   0:-       | 328:lw      |   0:-       BUS_LOAD  MEM[72] accepted 1
  157:  336:lw      | 336:-       | 332:mul     |   0:-       | 328:lw      r3=5  BUS_LOAD  MEM[328] accepted 1
  158:  340:add     | 336:lw      | 336:-       | 332:mul     |   0:-       BUS_LOAD  MEM[336] accepted 1
  159:  344:-       | 340:add     | 336:lw      | 336:-       | 332:mul     r3=49995  BUS_LOAD  MEM[336] accepted 1
  160:  344:-       | 340:add     |   0:-       | 336:lw      | 336:-       BUS_LOAD  MEM[216] accepted 1
  161:  344:sw      | 344:-       | 340:add     |   0:-       | 336:lw      r4=6  BUS_LOAD  MEM[336] accepted 1
  162:  348:addi    | 344:sw      | 344:-       | 340:add     |   0:-       BUS_LOAD  MEM[344] accepted 1
  163:  352:addi    | 348:addi    | 344:sw      | 344:-       | 340:add     r3=50001  BUS_LOAD  MEM[344] accepted 1
  164:  356:-       | 352:addi    | 348:addi    | 344:sw      | 344:-       BUS_STORE MEM[216] = 50001 accepted 1
  165:  356:addi    | 356:-       | 352:addi    | 348:addi    | 344:sw      BUS_LOAD  MEM[352] accepted 1
  166:  360:sltiu   | 356:addi    | 356:-       | 352:addi    | 348:addi    r1=80  BUS_LOAD  MEM[352] accepted 1
  167:  364:bne     | 360:sltiu   | 356:addi    | 356:-       | 352:addi    r2=224  BUS_LOAD  MEM[360] accepted 1
  168:  368:wfi     | 364:bne     | 360:sltiu   | 356:addi    | 356:-       BUS_LOAD  MEM[360] accepted 1
  169:  372:invalid | 368:wfi     | 364:bne     | 360:sltiu   | 356:addi    r6=9  BUS_LOAD  MEM[368] accepted 1
  170:  376:invalid | 372:invalid | 368:wfi     | 364:bne     | 360:sltiu   r5=1  BUS_LOAD  MEM[368] accepted 1
  171:  328:lw      |   0:-       |   0:-       |   0:-       | 364:bne     BUS_LOAD  MEM[320] accepted 1
  172:  332:mul     | 328:lw      |   0:-       |   0:-       |   0:-       BUS_LOAD  MEM[328] accepted 1
  173:  336:-       | 332:mul     | 328:lw      |   0:-       |   0:-       BUS_LOAD  MEM[328] accepted 1
  174:  336:-       | 332:mul     |   0:-       | 328:lw      |   0:-       BUS_LOAD  MEM[80] accepted 1
  175:  336:lw      | 336:-       | 332:mul     |   0:-       | 328:lw      r3=3  BUS_LOAD  MEM[328] accepted 1
  176:  340:add     | 336:lw      | 336:-       | 332:mul     |   0:-       BUS_LOAD  MEM[336] accepted 1
  177:  344:-       | 340:add     | 336:lw      | 336:-       | 332:mul     r3=29997  BUS_LOAD  MEM[336] accepted 1
  178:  344:-       | 340:add     |   0:-       | 336:lw      | 336:-       BUS_LOAD  MEM[224] accepted 1
  179:  344:sw      | 344:-       | 340:add     |   0:-       | 336:lw      r4=2  BUS_LOAD  MEM[336] accepted 1
  180:  348:addi    | 344:sw      | 344:-       | 340:add     |   0:-       BUS_LOAD  MEM[344] accepted 1
  181:  352:addi    | 348:addi    | 344:sw      | 344:-       | 340:add     r3=29999  BUS_LOAD  MEM[344] accepted 1
  182:  356:-       | 352:addi    | 348:addi    | 344:sw      | 344:-       BUS_STORE MEM[224] = 29999 accepted 1
  183:  356:addi    | 356:-       | 352:addi    | 348:addi    | 344:sw      BUS_LOAD  MEM[352] accepted 1
  184:  360:sltiu   | 356:addi    | 356:-       | 352:addi    | 348:addi    r1=88  BUS_LOAD  MEM[352] accepted 1
  185:  364:bne     | 360:sltiu   | 356:addi    | 356:-       | 352:addi    r2=232  BUS_LOAD  MEM[360] accepted 1
  186:  368:wfi     | 364:bne     | 360:sltiu   | 356:addi    | 356:-       BUS_LOAD  MEM[360] accepted 1
  187:  372:invalid | 368:wfi     | 364:bne     | 360:sltiu   | 356:addi    r6=10  BUS_LOAD  MEM[368] accepted 1
  188:  376:invalid | 372:invalid | 368:wfi     | 364:bne     | 360:sltiu   r5=1  BUS_LOAD  MEM[368] accepted 1
  189:  328:lw      |   0:-       |   0:-       |   0:-       | 364:bne     BUS_LOAD  MEM[320] accepted 1
  190:  332:mul     | 328:lw      |   0:-       |   0:-       |   0:-       BUS_LOAD  MEM[328] accepted 1
  191:  336:-       | 332:mul     | 328:lw      |   0:-       |   0:-       BUS_LOAD  MEM[328] accepted 1
  192:  336:-       | 332:mul     |   0:-       | 328:lw      |   0:-       BUS_LOAD  MEM[88] accepted 1
  193:  336:lw      | 336:-       | 332:mul     |   0:-       | 328:lw      r3=5  BUS_LOAD  MEM[328] accepted 1
  194:  340:add     | 336:lw      | 336:-       | 332:mul     |   0:-       BUS_LOAD  MEM[336] accepted 1
  195:  344:-       | 340:add     | 336:lw      | 336:-       | 332:mul     r3=49995  BUS_LOAD  MEM[336] accepted 1
  196:  344:-       | 340:add     |   0:-       | 336:lw      | 336:-       BUS_LOAD  MEM[232] accepted 1
  197:  344:sw      | 344:-       | 340:add     |   0:-       | 336:lw      r4=3  BUS_LOAD  MEM[336] accepted 1
  198:  348:addi    | 344:sw      | 344:-       | 340:add     |   0:-       BUS_LOAD  MEM[344] accepted 1
  199:  352:addi    | 348:addi    | 344:sw      | 344:-       | 340:add     r3=49998  BUS_LOAD  MEM[344] accepted 1
  200:  356:-       | 352:addi    | 348:addi    | 344:sw      | 344:-       BUS_STORE MEM[232] = 49998 accepted 1
  201:  356:addi    | 356:-       | 352:addi    | 348:addi    | 344:sw      BUS_LOAD  MEM[352] accepted 1
  202:  360:sltiu   | 356:addi    | 356:-       | 352:addi    | 348:addi    r1=96  BUS_LOAD  MEM[352] accepted 1
  203:  364:bne     | 360:sltiu   | 356:addi    | 356:-       | 352:addi    r2=240  BUS_LOAD  MEM[360] accepted 1
  204:  368:wfi     | 364:bne     | 360:sltiu   | 356:addi    | 356:-       BUS_LOAD  MEM[360] accepted 1
  205:  372:invalid | 368:wfi     | 364:bne     | 360:sltiu   | 356:addi    r6=11  BUS_LOAD  MEM[368] accepted 1
  206:  376:invalid | 372:invalid | 368:wfi     | 364:bne     | 360:sltiu   r5=1  BUS_LOAD  MEM[368] accepted 1
  207:  328:lw      |   0:-       |   0:-       |   0:-       | 364:bne     BUS_LOAD  MEM[320] accepted 1
  208:  332:mul     | 328:lw      |   0:-       |   0:-       |   0:-       BUS_LOAD  MEM[328] accepted 1
  209:  336:-       | 332:mul     | 328:lw      |   0:-       |   0:-       BUS_LOAD  MEM[328] accepted 1
  210:  336:-       | 332:mul     |   0:-       | 328:lw      |   0:-       BUS_LOAD  MEM[96] accepted 1
  211:  336:lw      | 336:-       | 332:mul     |   0:-       | 328:lw      r3=8  BUS_LOAD  MEM[328] accepted 1
  212:  340:add     | 336:lw      | 336:-       | 332:mul     |   0:-       BUS_LOAD  MEM[336] accepted 1
  213:  344:-       | 340:add     | 336:lw      | 336:-       | 332:mul     r3=79992  BUS_LOAD  MEM[336] accepted 1
  214:  344:-       | 340:add     |   0:-       | 336:lw      | 336:-       BUS_LOAD  MEM[240] accepted 1
  215:  344:sw      | 344:-       | 340:add     |   0:-       | 336:lw      r4=7  BUS_LOAD  MEM[336] accepted 1
  216:  348:addi    | 344:sw      | 344:-       | 340:add     |   0:-       BUS_LOAD  MEM[344] accepted 1
  217:  352:addi    | 348:addi    | 344:sw      | 344:-       | 340:add     r3=79999  BUS_LOAD  MEM[344] accepted 1
  218:  356:-       | 352:addi    | 348:addi    | 344:sw      | 344:-       BUS_STORE MEM[240] = 79999 accepted 1
  219:  356:addi    | 356:-       | 352:addi    | 348:addi    | 344:sw      BUS_LOAD  MEM[352] accepted 1
  220:  360:sltiu   | 356:addi    | 356:-       | 352:addi    | 348:addi    r1=104  BUS_LOAD  MEM[352] accepted 1
  221:  364:bne     | 360:sltiu   | 356:addi    | 356:-       | 352:addi    r2=248  BUS_LOAD  MEM[360] accepted 1
  222:  368:wfi     | 364:bne     | 360:sltiu   | 356:addi    | 356:-       BUS_LOAD  MEM[360] accepted 1
  223:  372:invalid | 368:wfi     | 364:bne     | 360:sltiu   | 356:addi    r6=12  BUS_LOAD  MEM[368] accepted 1
  224:  376:invalid | 372:invalid | 368:wfi     | 364:bne     | 360:sltiu   r5=1  BUS_LOAD  MEM[368] accepted 1
  225:  328:lw      |   0:-       |   0:-       |   0:-       | 364:bne     BUS_LOAD  MEM[320] accepted 1
  226:  332:mul     | 328:lw      |   0:-       |   0:-       |   0:-       BUS_LOAD  MEM[328] accepted 1
  227:  336:-       | 332:mul     | 328:lw      |   0:-       |   0:-       BUS_LOAD  MEM[328] accepted 1
  228:  336:-       | 332:mul     |   0:-       | 328:lw      |   0:-       BUS_LOAD  MEM[104] accepted 1
  229:  336:lw      | 336:-       | 332:mul     |   0:-       | 328:lw      r3=9  BUS_LOAD  MEM[328] accepted 1
  230:  340:add     | 336:lw      | 336:-       | 332:mul     |   0:-       BUS_LOAD  MEM[336] accepted 1
  231:  344:-       | 340:add     | 336:lw      | 336:-       | 332:mul     r3=89991  BUS_LOAD  MEM[336] accepted 1
  232:  344:-       | 340:add     |   0:-       | 336:lw      | 336:-       BUS_LOAD  MEM[248] accepted 1
  233:  344:sw      | 344:-       | 340:add     |   0:-       | 336:lw      r4=3  BUS_LOAD  MEM[336] accepted 1
  234:  348:addi    | 344:sw      | 344:-       | 340:add     |   0:-       BUS_LOAD  MEM[344] accepted 1
  235:  352:addi    | 348:addi    | 344:sw      | 344:-       | 340:add     r3=89994  BUS_LOAD  MEM[344] accepted 1
  236:  356:-       | 352:addi    | 348:addi    | 344:sw      | 344:-       BUS_STORE MEM[248] = 89994 accepted 1
  237:  356:addi    | 356:-       | 352:addi    | 348:addi    | 344:sw      BUS_LOAD  MEM[352] accepted 1
  238:  360:sltiu   | 356:addi    | 356:-       | 352:addi    | 348:addi    r1=112  BUS_LOAD  MEM[352] accepted 1
  239:  364:bne     | 360:sltiu   | 356:addi    | 356:-       | 352:addi    r2=256  BUS_LOAD  MEM[360] accepted 1
  240:  368:wfi     | 364:bne     | 360:sltiu   | 356:addi    | 356:-       BUS_LOAD  MEM[360] accepted 1
  241:  372:invalid | 368:wfi     | 364:bne     | 360:sltiu   | 356:addi    r6=13  BUS_LOAD  MEM[368] accepted 1
  242:  376:invalid | 372:invalid | 368:wfi     | 364:bne     | 360:sltiu   r5=1  BUS_LOAD  MEM[368] accepted 1
  243:  328:lw      |   0:-       |   0:-       |   0:-       | 364:bne     BUS_LOAD  MEM[320] accepted 1
  244:  332:mul     | 328:lw      |   0:-       |   0:-       |   0:-       BUS_LOAD  MEM[328] accepted 1
  245:  336:-       | 332:mul     | 328:lw      |   0:-       |   0:-       BUS_LOAD  MEM[328] accepted 1
  246:  336:-       | 332:mul     |   0:-       | 328:lw      |   0:-       BUS_LOAD  MEM[112] accepted 1
  247:  336:lw      | 336:-       | 332:mul     |   0:-       | 328:lw      r3=7  BUS_LOAD  MEM[328] accepted 1
  248:  340:add     | 336:lw      | 336:-       | 332:mul     |   0:-       BUS_LOAD  MEM[336] accepted 1
  249:  344:-       | 340:add     | 336:lw      | 336:-       | 332:mul     r3=69993  BUS_LOAD  MEM[336] accepted 1
  250:  344:-       | 340:add     |   0:-       | 336:lw      | 336:-       BUS_LOAD  MEM[256] accepted 1
  251:  344:sw      | 344:-       | 340:add     |   0:-       | 336:lw      r4=0  BUS_LOAD  MEM[336] accepted 1
  252:  348:addi    | 344:sw      | 344:-       | 340:add     |   0:-       BUS_LOAD  MEM[344] accepted 1
  253:  352:addi    | 348:addi    | 344:sw      | 344:-       | 340:add     r3=69993  BUS_LOAD  MEM[344] accepted 1
  254:  356:-       | 352:addi    | 348:addi    | 344:sw      | 344:-       BUS_STORE MEM[256] = 69993 accepted 1
  255:  356:addi    | 356:-       | 352:addi    | 348:addi    | 344:sw      BUS_LOAD  MEM[352] accepted 1
  256:  360:sltiu   | 356:addi    | 356:-       | 352:addi    | 348:addi    r1=120  BUS_LOAD  MEM[352] accepted 1
  257:  364:bne     | 360:sltiu   | 356:addi    | 356:-       | 352:addi    r2=264  BUS_LOAD  MEM[360] accepted 1
  258:  368:wfi     | 364:bne     | 360:sltiu   | 356:addi    | 356:-       BUS_LOAD  MEM[360] accepted 1
  259:  372:invalid | 368:wfi     | 364:bne     | 360:sltiu   | 356:addi    r6=14  BUS_LOAD  MEM[368] accepted 1
  260:  376:invalid | 372:invalid | 368:wfi     | 364:bne     | 360:sltiu   r5=1  BUS_LOAD  MEM[368] accepted 1
  261:  328:lw      |   0:-       |   0:-       |   0:-       | 364:bne     BUS_LOAD  MEM[320] accepted 1
  262:  332:mul     | 328:lw      |   0:-       |   0:-       |   0:-       BUS_LOAD  MEM[328] accepted 1
  263:  336:-       | 332:mul     | 328:lw      |   0:-       |   0:-       BUS_LOAD  MEM[328] accepted 1
  264:  336:-       | 332:mul     |   0:-       | 328:lw      |   0:-       BUS_LOAD  MEM[120] accepted 1
  265:  336:lw      | 336:-       | 332:mul     |   0:-       | 328:lw      r3=9  BUS_LOAD  MEM[328] accepted 1
  266:  340:add     | 336:lw      | 336:-       | 332:mul     |   0:-       BUS_LOAD  MEM[336] accepted 1
  267:  344:-       | 340:add     | 336:lw      | 336:-       | 332:mul     r3=89991  BUS_LOAD  MEM[336] accepted 1
  268:  344:-       | 340:add     |   0:-       | 336:lw      | 336:-       BUS_LOAD  MEM[264] accepted 1
  269:  344:sw      | 344:-       | 340:add     |   0:-       | 336:lw      r4=9  BUS_LOAD  MEM[336] accepted 1
  270:  348:addi    | 344:sw      | 344:-       | 340:add     |   0:-       BUS_LOAD  MEM[344] accepted 1
  271:  352:addi    | 348:addi    | 344:sw      | 344:-       | 340:add     r3=90000  BUS_LOAD  MEM[344] accepted 1
  272:  356:-       | 352:addi    | 348:addi    | 344:sw      | 344:-       BUS_STORE MEM[264] = 90000 accepted 1
  273:  356:addi    | 356:-       | 352:addi    | 348:addi    | 344:sw      BUS_LOAD  MEM[352] accepted 1
  274:  360:sltiu   | 356:addi    | 356:-       | 352:addi    | 348:addi    r1=128  BUS_LOAD  MEM[352] accepted 1
  275:  364:bne     | 360:sltiu   | 356:addi    | 356:-       | 352:addi    r2=272  BUS_LOAD  MEM[360] accepted 1
  276:  368:wfi     | 364:bne     | 360:sltiu   | 356:addi    | 356:-       BUS_LOAD  MEM[360] accepted 1
  277:  372:invalid | 368:wfi     | 364:bne     | 360:sltiu   | 356:addi    r6=15  BUS_LOAD  MEM[368] accepted 1
  278:  376:invalid | 372:invalid | 368:wfi     | 364:bne     | 360:sltiu   r5=1  BUS_LOAD  MEM[368] accepted 1
  279:  328:lw      |   0:-       |   0:-       |   0:-       | 364:bne     BUS_LOAD  MEM[320] accepted 1
  280:  332:mul     | 328:lw      |   0:-       |   0:-       |   0:-       BUS_LOAD  MEM[328] accepted 1
  281:  336:-       | 332:mul     | 328:lw      |   0:-       |   0:-       BUS_LOAD  MEM[328] accepted 1
  282:  336:-       | 332:mul     |   0:-       | 328:lw      |   0:-       BUS_LOAD  MEM[128] accepted 1
  283:  336:lw      | 336:-       | 332:mul     |   0:-       | 328:lw      r3=3  BUS_LOAD  MEM[328] accepted 1
  284:  340:add     | 336:lw      | 336:-       | 332:mul     |   0:-       BUS_LOAD  MEM[336] accepted 1
  285:  344:-       | 340:add     | 336:lw      | 336:-       | 332:mul     r3=29997  BUS_LOAD  MEM[336] accepted 1
  286:  344:-       | 340:add     |   0:-       | 336:lw      | 336:-       BUS_LOAD  MEM[272] accepted 1
  287:  344:sw      | 344:-       | 340:add     |   0:-       | 336:lw      r4=5  BUS_LOAD  MEM[336] accepted 1
  288:  348:addi    | 344:sw      | 344:-       | 340:add     |   0:-       BUS_LOAD  MEM[344] accepted 1
  289:  352:addi    | 348:addi    | 344:sw      | 344:-       | 340:add     r3=30002  BUS_LOAD  MEM[344] accepted 1
  290:  356:-       | 352:addi    | 348:addi    | 344:sw      | 344:-       BUS_STORE MEM[272] = 30002 accepted 1
  291:  356:addi    | 356:-       | 352:addi    | 348:addi    | 344:sw      BUS_LOAD  MEM[352] accepted 1
  292:  360:sltiu   | 356:addi    | 356:-       | 352:addi    | 348:addi    r1=136  BUS_LOAD  MEM[352] accepted 1
  293:  364:bne     | 360:sltiu   | 356:addi    | 356:-       | 352:addi    r2=280  BUS_LOAD  MEM[360] accepted 1
  294:  368:wfi     | 364:bne     | 360:sltiu   | 356:addi    | 356:-       BUS_LOAD  MEM[360] accepted 1
  295:  372:invalid | 368:wfi     | 364:bne     | 360:sltiu   | 356:addi    r6=16  BUS_LOAD  MEM[368] accepted 1
  296:  376:invalid | 372:invalid | 368:wfi     | 364:bne     | 360:sltiu   r5=1  BUS_LOAD  MEM[368] accepted 1
  297:  328:lw      |   0:-       |   0:-       |   0:-       | 364:bne     BUS_LOAD  MEM[320] accepted 1
  298:  332:mul     | 328:lw      |   0:-       |   0:-       |   0:-       BUS_LOAD  MEM[328] accepted 1
  299:  336:-       | 332:mul     | 328:lw      |   0:-       |   0:-       BUS_LOAD  MEM[328] accepted 1
  300:  336:-       | 332:mul     |   0:-       | 328:lw      |   0:-       BUS_LOAD  MEM[136] accepted 1
  301:  336:lw      | 336:-       | 332:mul     |   0:-       | 328:lw      r3=2  BUS_LOAD  MEM[328] accepted 1
  302:  340:add     | 336:lw      | 336:-       | 332:mul     |   0:-       BUS_LOAD  MEM[336] accepted 1
  303:  344:-       | 340:add     | 336:lw      | 336:-       | 332:mul     r3=19998  BUS_LOAD  MEM[336] accepted 1
  304:  344:-       | 340:add     |   0:-       | 336:lw      | 336:-       BUS_LOAD  MEM[280] accepted 1
  305:  344:sw      | 344:-       | 340:add     |   0:-       | 336:lw      r4=0  BUS_LOAD  MEM[336] accepted 1
  306:  348:addi    | 344:sw      | 344:-       | 340:add     |   0:-       BUS_LOAD  MEM[344] accepted 1
  307:  352:addi    | 348:addi    | 344:sw      | 344:-       | 340:add     r3=19998  BUS_LOAD  MEM[344] accepted 1
  308:  356:-       | 352:addi    | 348:addi    | 344:sw      | 344:-       BUS_STORE MEM[280] = 19998 accepted 1
  309:  356:addi    | 356:-       | 352:addi    | 348:addi    | 344:sw      BUS_LOAD  MEM[352] accepted 1
  310:  360:sltiu   | 356:addi    | 356:-       | 352:addi    | 348:addi    r1=144  BUS_LOAD  MEM[352] accepted 1
  311:  364:bne     | 360:sltiu   | 356:addi    | 356:-       | 352:addi    r2=288  BUS_LOAD  MEM[360] accepted 1
  312:  368:wfi     | 364:bne     | 360:sltiu   | 356:addi    | 356:-       BUS_LOAD  MEM[360] accepted 1
  313:  372:invalid | 368:wfi     | 364:bne     | 360:sltiu   | 356:addi    r6=17  BUS_LOAD  MEM[368] accepted 1
  314:  376:invalid | 372:invalid | 368:wfi     | 364:bne     | 360:sltiu   r5=1  BUS_LOAD  MEM[368] accepted 1
  315:  328:lw      |   0:-       |   0:-       |   0:-       | 364:bne     BUS_LOAD  MEM[320] accepted 1
  316:  332:mul     | 328:lw      |   0:-       |   0:-       |   0:-       BUS_LOAD  MEM[328] accepted 1
  317:  336:-       | 332:mul     | 328:lw      |   0:-       |   0:-       BUS_LOAD  MEM[328] accepted 1
  318:  336:-       | 332:mul     |   0:-       | 328:lw      |   0:-       BUS_LOAD  MEM[144] accepted 1
  319:  336:lw      | 336:-       | 332:mul     |   0:-       | 328:lw      r3=3  BUS_LOAD  MEM[328] accepted 1
  320:  340:add     | 336:lw      | 336:-       | 332:mul     |   0:-       BUS_LOAD  MEM[336] accepted 1
  321:  344:-       | 340:add     | 336:lw      | 336:-       | 332:mul     r3=29997  BUS_LOAD  MEM[336] accepted 1
  322:  344:-       | 340:add     |   0:-       | 336:lw      | 336:-       BUS_LOAD  MEM[288] accepted 1
  323:  344:sw      | 344:-       | 340:add     |   0:-       | 336:lw      r4=4  BUS_LOAD  MEM[336] accepted 1
  324:  348:addi    | 344:sw      | 344:-       | 340:add     |   0:-       BUS_LOAD  MEM[344] accepted 1
  325:  352:addi    | 348:addi    | 344:sw      | 344:-       | 340:add     r3=30001  BUS_LOAD  MEM[344] accepted 1
  326:  356:-       | 352:addi    | 348:addi    | 344:sw      | 344:-       BUS_STORE MEM[288] = 30001 accepted 1
  327:  356:addi    | 356:-       | 352:addi    | 348:addi    | 344:sw      BUS_LOAD  MEM[352] accepted 1
  328:  360:sltiu   | 356:addi    | 356:-       | 352:addi    | 348:addi    r1=152  BUS_LOAD  MEM[352] accepted 1
  329:  364:bne     | 360:sltiu   | 356:addi    | 356:-       | 352:addi    r2=296  BUS_LOAD  MEM[360] accepted 1
  330:  368:wfi     | 364:bne     | 360:sltiu   | 356:addi    | 356:-       BUS_LOAD  MEM[360] accepted 1
  331:  372:invalid | 368:wfi     | 364:bne     | 360:sltiu   | 356:addi    r6=18  BUS_LOAD  MEM[368] accepted 1
  332:  376:invalid | 372:invalid | 368:wfi     | 364:bne     | 360:sltiu   r5=0  BUS_LOAD  MEM[368] accepted 1
  333:  380:invalid | 376:invalid | 372:-       | 368:wfi     | 364:bne     BUS_LOAD  MEM[376] accepted 1
  334:  384:invalid | 380:invalid | 376:-       | 372:-       | 368:wfi     BUS_LOAD  MEM[376] accepted 1
