Chronologic VCS simulator copyright 1991-2017
Contains Synopsys proprietary information.
Compiler version N-2017.12-SP2-1_Full64; Runtime version N-2017.12-SP2-1_Full64;  Oct 10 13:04 2019
VCD+ Writer N-2017.12-SP2-1_Full64 Copyright (c) 1991-2017 by Synopsys Inc.
@@
@@
@@                     0  Asserting System reset......
@@
@@                     0 : System STILL at reset, can't show anything
@@
@@
@@                   100 : System STILL at reset, can't show anything
@@
@@
@@                   200 : System STILL at reset, can't show anything
@@
@@
@@                   300 : System STILL at reset, can't show anything
@@
@@                   360  Deasserting System reset......
@@
@@
@@@ Unified Memory contents hex on left, decimal on right: 
@@@
@@@ mem[    0] = 0000113700000013 : 18927920873491
@@@ mem[    8] = 0010029380010113 : 4506432158368019
@@@ mem[   16] = 0010031300000f93 : 4506979766636435
@@@ mem[   24] = 00731a6300200393 : 32398634827907987
@@@ mem[   32] = 0000001300000013 : 81604378643
@@@ mem[   40] = 1050007300000013 : 1175439996664938515
@@@ mem[   48] = 00000313001f8f93 : 3380141330323
@@@ mem[   56] = 0073146300000393 : 32392037756044179
@@@ mem[   64] = 00730663001f8f93 : 32376644595322771
@@@ mem[   72] = 1050007300000013 : 1175439996664938515
@@@ mem[   80] = 00130313001f8f93 : 5351404698832787
@@@ mem[   88] = 00534e6302536063 : 23448610214731875
@@@ mem[   96] = 0062fa630062dc63 : 27859850832829539
@@@ mem[  104] = 00535663001f8f93 : 23457406270803859
@@@ mem[  112] = 1050007300000013 : 1175439996664938515
@@@ mem[  120] = 7ffff2b7fffff337 : 9223357433965966135
@@@ mem[  128] = 0000001300537663 : 81609848419
@@@ mem[  136] = 0062e66310500073 : 27837860867473523
@@@ mem[  144] = 1050007300000013 : 1175439996664938515
@@@ mem[  152] = 0000001300534663 : 81609836131
@@@ mem[  160] = 0062d66310500073 : 27820268681429107
@@@ mem[  168] = 1050007300000013 : 1175439996664938515
@@@ mem[  176] = 0000001300c000ef : 81616961775
@@@ mem[  184] = 0000029310500073 : 2830657126515
@@@ mem[  192] = 0103031300000317 : 72905399107322647
@@@ mem[  200] = 10500073000302e7 : 1175439996665135847
@@@ mem[  208] = ffc3031300000317 : 18429577480269464343
@@@ mem[  216] = 00100293fe629ae3 : 4506434278693603
@@@ mem[  224] = 800fef9300000f93 : 9227857576144670611
@@@ mem[  232] = 00000393fff36313 : 3934189216531
@@@ mem[  240] = 0013f39300338393 : 5615837246620563
@@@ mem[  248] = fffe4e1300000e13 : 18446266967267479059
@@@ mem[  256] = 80037313106e1a63 : 9224342987502131811
@@@ mem[  264] = 00132e9311f31663 : 5399233753716323
@@@ mem[  272] = 01ee946300133f13 : 139211791418998547
@@@ mem[  280] = 001003930e635e63 : 4507529763839587
@@@ mem[  288] = 0000133700c39393 : 21126956946323
@@@ mem[  296] = fffff3370e639663 : 18446730016522999395
@@@ mem[  304] = 0010039301f35313 : 4507529555170067
@@@ mem[  312] = fffff3370c639e63 : 18446730016489447011
@@@ mem[  320] = fffff3b741f35313 : 18446730567143871251
@@@ mem[  328] = 0c639463fff3e393 : 892720308366336915
@@@ mem[  336] = 0ff0031300200293 : 1148421285120836243
@@@ mem[  344] = 0001038300610023 : 285336158666787
@@@ mem[  352] = 000143830a63da63 : 355705070803555
@@@ mem[  360] = fff363130a731663 : 18443193832443156067
@@@ mem[  368] = 006110230000f337 : 27320815250895671
@@@ mem[  376] = 0863dc6300011383 : 604569092757721987
@@@ mem[  384] = 0873986300015383 : 608997925594420099
@@@ mem[  392] = 7ffff337fff36313 : 9223357983720956691
@@@ mem[  400] = 0001238300612023 : 320520530763811
@@@ mem[  408] = 0030029306731e63 : 13513629373767267
@@@ mem[  416] = 0000039300500313 : 3929900319507
@@@ mem[  424] = 00131313006303b3 : 5368996889297843
@@@ mem[  432] = 0030031306731263 : 13514179129578083
@@@ mem[  440] = 0073633300400393 : 32478693020402579
@@@ mem[  448] = 05c3186300700e13 : 415202404136390163
@@@ mem[  456] = 4073033300300313 : 4644059158330475283
@@@ mem[  464] = 04731063fff00393 : 320618020155163539
@@@ mem[  472] = 00e0031300400293 : 63053774926643859
@@@ mem[  480] = 02638e3302800393 : 172137560506631059
@@@ mem[  488] = 03ce946323000e93 : 274319780826058387
@@@ mem[  496] = 555553b77ff00337 : 6148912913834836791
@@@ mem[  504] = 02730eb302733f33 : 176500972400623411
@@@ mem[  512] = f55553b7fff00337 : 17678127962050790199
@@@ mem[  520] = 02730eb302731f33 : 176500972400615219
@@@ mem[  528] = 1050007310500073 : 1175439996938616947
@@@
@@@ mem[ 2048] = 000000007ffff000 : 2147479552
@@@
@@@
@@                 15720 : System halted
@@
@@@ System halted on WFI instruction
@@@
@@
@@  154 cycles / 109 instrs = 1.412844 CPI
@@
@@  1530.00 ns total time to execute
@@

$finish called from file "testbench/testbench.sv", line 266.
$finish at simulation time                16720
           V C S   S i m u l a t i o n   R e p o r t 
Time: 1672000 ps
CPU Time:      0.190 seconds;       Data structure size:   0.1Mb
Thu Oct 10 13:04:23 2019
